@startuml theBuzz


object Tweets{
    <<PK>> countryid: Integer
    topic: String
    rank: Integer
    promotedcontent: String
    tweetvolume: Integer
    asof: String
    createdat: String
    hashtag: String
    tweetsearchlink: String
    tweet1: Integer
    tweet2: Integer
    tweet3: Integer
    subregion = String
}

object News{
    <<PK>> countryid = Integer
    tweettopic = String
    title = String
    description = String
    link = String
    author = String
    source = String
    publishedat = String
    publishtime = String
    imageurl = String
     subregion = String
}

object Countries{
    <<PK>> countryid = Integer
    name = String
    capital = String
    population = Integer
    subregion = String
    latlng = JSON (String[])
    currencies = JSON (String[])
    languages = JSON (String[])
    timezones = JSON (String[])
    borders = JSON (String[])
    relevance = Float
    callingcodes = JSON (Integer[])
    tweettopic = String
    newstitle = String
}

Tweets "1 " -- "1 " News
News "1 " -- "1 " Tweets

News "1 " -- "1 " Countries
Countries "1 " -- "1 " News

Countries "1 " -- "1 " Tweets
Tweets "1 " -- "1 " Countries



@enduml